%YAML 1.1
%TAG !u! tag:unity3d.com,2011:
--- !u!21 &2100000
Material:
  serializedVersion: 6
  m_ObjectHideFlags: 0
  m_CorrespondingSourceObject: {fileID: 0}
  m_PrefabInternal: {fileID: 0}
  m_Name: Blue
  m_Shader: {fileID: 4800000, guid: 3284db37b40fa804eb2210040057ad50, type: 3}
  m_ShaderKeywords: 
  m_LightmapFlags: 4
  m_EnableInstancingVariants: 0
  m_DoubleSidedGI: 0
  m_CustomRenderQueue: -1
  stringTagMap: {}
  disabledShaderPasses: []
  m_SavedProperties:
    serializedVersion: 3
    m_TexEnvs:
    - Texture2D_59BDB49E:
        m_Texture: {fileID: 2800000, guid: a937291e5e9856c49a5f85b9566a24af, type: 3}
        m_Scale: {x: 1, y: 1}
        m_Offset: {x: 0, y: 0}
    - _Texture2D:
        m_Texture: {fileID: 2800000, guid: a937291e5e9856c49a5f85b9566a24af, type: 3}
        m_Scale: {x: 1, y: 1}
        m_Offset: {x: 0, y: 0}
    m_Floats:
    - Vector1_357B6851: 4
    - Vector1_7C3DB21D: 0
    m_Colors:
    - Color_1BFACB9A: {r: 0.04705883, g: 0.11764707, b: 0.011764707, a: 1}
    - Color_5291228B: {r: 0.3019608, g: 0.37647063, b: 0.5058824, a: 0}
    - Color_775741F6: {r: 0.3019608, g: 0.48627454, b: 0.70980394, a: 0}
    - Color_C6D29B98: {r: 0.2901961, g: 0.27058825, b: 0.2901961, a: 0}
