%YAML 1.1
%TAG !u! tag:unity3d.com,2011:
--- !u!1045 &1
EditorBuildSettings:
  m_ObjectHideFlags: 0
  serializedVersion: 2
  m_Scenes:
  - enabled: 1
    path: Assets/Scenes/Main Menu.unity
    guid: b0a479bcf9db0084994d2101beece912
  - enabled: 1
    path: Assets/Scenes/Credits.unity
    guid: 7053b2edd7e52864396d9811d5b0a96a
  - enabled: 1
    path: Assets/Scenes/Services.unity
    guid: 86488270c07d10643b4fd1e153f38887
  - enabled: 1
    path: Assets/Scenes/Level 1.unity
    guid: c7f63e6648a86c84aabfb66b1c9bf911
  - enabled: 1
    path: Assets/Scenes/Empty Scene.unity
    guid: 1cea346609c1ed34b8df632edbadc688
  - enabled: 1
    path: Assets/Scenes/Sandcastle.unity
    guid: 476377a50060180409f2864103a6d9ae
  - enabled: 1
    path: Assets/Scenes/Toxic waste level.unity
    guid: 812ca54bba16bcc4db50c6b382dd4f74
  - enabled: 1
    path: Assets/Scenes/Level Select.unity
    guid: 9ce0f6049ac3eb54092d4ed6578d206e
  m_configObjects: {}
